{
  "run_name": "emotion_alco_audio_challenge_data_convnet_opensmile_resnet",
  "epochs": 2,
  "batch_size": 32,
  "learning_rate": 0.05,
  "learning_rate_decay": 0.95,
  "threshold": 0.5,
  "alpha": 2,
  "audio_basepath": "/media/mohsin/6E3A30993A30606F/ALC/DATA/",
  "train_data_file": "/home/mohsin/Desktop/Repos/asr-project/ALC/DOC/IS2011CHALLENGE/TRAIN_altered/TRAIN_altered_1.TBL",
  "dev_data_file": "/home/mohsin/Desktop/Repos/asr-project/ALC/DOC/IS2011CHALLENGE/D1_altered/D1_altered_1.TBL",
  "test_data_file": "/home/mohsin/Desktop/Repos/asr-project/ALC/DOC/IS2011CHALLENGE/TEST_altered/TEST_altered_1.TBL",
  "network_metrics_basepath": "results/",
  "network_save_path": "alco_trained_models/",
  "tensorboard_summary_path": "tensorboard_summary",
  "network_restore_path": "",
  "normalise_while_creating": false,
  "normalise_while_training": true,
  "num_classes": 1,
  "data_augment": true,
  "network_save_interval": 3,
  "display_interval": 50,
  "dropout": 0.2,
  "sampling_rate": 44100,
  "sample_size_in_seconds": 8,
  "overlap": 1,
  "data_save_path": "/media/mohsin/6E3A30993A30606F/AlcoProcessedData/Part_1/",
  "data_processing_method": "fbank",
  "debug_filename": "predictions_debug.npy",
  "use_gpu":true
}